Les tableaux dans quartos
…
Ici on veut représenter les taux de croissance pour les années de 2020 à 2025

Code

donnees_simples <- donnees |> 
  group_by(variable,scenario) |> arrange(year) |> 
  mutate( value_gr = 100* (values / lag(values) - 1 )) |> 
  ungroup() |> 
  filter(year >= 2020 & year <= 2025) |> 
  select(year, variable, scenario, value_gr) 
  
donnees_simples

# A tibble: 36 × 4
    year variable scenario value_gr
   <int> <chr>    <chr>       <dbl>
 1  2020 CH       nrjbt       1.25 
 2  2020 GDP      nrjbt       1.25 
 3  2020 I        nrjbt       1.25 
 4  2020 M        nrjbt       1.25 
 5  2020 PCH      nrjbt       2.00 
 6  2020 X        nrjbt       1.25 
 7  2021 CH       nrjbt       1.03 
 8  2021 GDP      nrjbt       1.39 
 9  2021 I        nrjbt       1.25 
10  2021 M        nrjbt       0.534
# ℹ 26 more rows
…
