…
md <- max(spreads_data$date)
dates <- spreads_data$date
# on force le jour à être le 15 du mois, il n'y aura qu'une date par mois!
lubridate::day(dates) <- 15
spreads_m <- spreads_data |>
  mutate( date = dates) |>
  group_by(date, pays) |>
  summarize(taux_max = max(taux, na.rm=TRUE),
            taux_min = min(taux, na.rm=TRUE),
            taux = mean(taux, na.rm=TRUE))
spreads_m
```

    # A tibble: 422 × 5
    # Groups:   date [211]
       date       pays   taux_max taux_min   taux
       <date>     <fct>     <dbl>    <dbl>  <dbl>
     1 2007-01-15 France   0.0580   0.0130 0.0409
     2 2007-01-15 Italie   0.278    0.154  0.229
     3 2007-02-15 France   0.0560   0.0380 0.0440
     4 2007-02-15 Italie   0.284    0.17   0.211
     5 2007-03-15 France   0.0630   0.0350 0.0466
     6 2007-03-15 Italie   0.318    0.192  0.239
     7 2007-04-15 France   0.0690   0.0410 0.0496
     8 2007-04-15 Italie   0.285    0.153  0.225
     9 2007-05-15 France   0.0980   0.0330 0.0464
    10 2007-05-15 Italie   0.291    0.175  0.222
    # ℹ 412 more rows
…
