Séries temporelles • ofce
…
Pour les séries temporelles, il y a deux recommandations pour les données :

utilisez le format long pour le graphique. Il peut être plus simple pour calculer des taux de croissance ou des ratios de passer en format large, mais c’est mieux de passer en format long pour la partie graphique, avec une ou plusieurs colonnes pour différencier les lignes. Cela permettra d’associer une couleur à chaque série et une facette à chque pays par exemple.

le champ décrivant les dates doit être en type date. ce n’est pas toujours évident quand les séries sont à fréquence annuelle, mais c’est très utile pour mélanger des séries de fréquence irrégulière, pour homogénéiser l’aspect des axes de dates ert mieux maîtriser le formatage des dates. Pour convertir une date en date, soit elle est au format charactere et de type “2022-12-01” et la fonction base::as.Date() fonctionne très bien. Sinon, pur les autres cas, le package lubridate (formation R niv. 1) est très pratique et dispose de plein de fonctions permettant d’absorber beaucoup de cas (les fonctions sont par exemple lubridate::ymd lubridate::dmy lubridate::my etc…).

[1] "2023-07-08" "2024-07-08" "2025-07-08"

[1] "2023-01-01" "2024-01-01" "2025-01-01"

[1] "2023-01-01" "2024-02-01" "2025-03-01"

Prenons l’exemple du graphiques sur les spreads (legislatives2024, Blot Gerrolf Plane). Les données sont égénrées par un scrapping sur investing.com (en attendant une solution API sur une banque de données bien faite). Les données se présentent sous la forme.

# A tibble: 10,117 × 3
   date       pays        taux
   <date>     <chr>      <dbl>
 1 2007-01-02 spreadfra 0.0130
 2 2007-01-03 spreadfra 0.0360
 3 2007-01-04 spreadfra 0.0280
 4 2007-01-05 spreadfra 0.0190
 5 2007-01-08 spreadfra 0.0440
 6 2007-01-09 spreadfra 0.0430
 7 2007-01-10 spreadfra 0.0290
 8 2007-01-11 spreadfra 0.0370
 9 2007-01-12 spreadfra 0.0340
10 2007-01-15 spreadfra 0.0380
# ℹ 10,107 more rows

Le fichier est au format long (avec deux modalités pour pays), les dates sont au format <date>, donc tout va presque bien. La colonne pays est un peu brute. On la transforme pour avoir un label plus propre et en facteur, pour contrôler l’ordre (on met France en premier, Italie en second). Il y a plusieurs méthodes pour arriver à ce résultat. Ici, on reste très simple parce qu’il n’y a que deux modalités. Si il y en avait plus de deux (et surtout un grand nombre, possiblement évolutif), on aurait fait quelques manipulations de chaînes et on aurait utilisé le package countrycode pour transformer les code pays en texte lisible, possiblement traduit dans différentes langues.

# A tibble: 10,117 × 3
   date       pays        taux
   <date>     <chr>      <dbl>
 1 2007-01-02 spreadfra 0.0130
 2 2007-01-03 spreadfra 0.0360
 3 2007-01-04 spreadfra 0.0280
 4 2007-01-05 spreadfra 0.0190
 5 2007-01-08 spreadfra 0.0440
 6 2007-01-09 spreadfra 0.0430
 7 2007-01-10 spreadfra 0.0290
 8 2007-01-11 spreadfra 0.0370
 9 2007-01-12 spreadfra 0.0340
10 2007-01-15 spreadfra 0.0380
# ℹ 10,107 more rows
…
Le résultat est intéressant, mais le graphique a cependant un défaut, il y a trop de points, ce qui est du à la fréquence quotidienne et donc il perd en clarté. On va donc faire deux choses : réduire la fréquence en agrégeant les données par mois, puis on va ajouter un insert.

fréquence mensuelle et insert

Pour construire les données à la fréquence mensuelle, on va créer un champ de date, mais retenant une seule date par mois (au milieu du mois).

# A tibble: 422 × 5
# Groups:   date [211]
   date       pays   taux_max taux_min   taux
   <date>     <fct>     <dbl>    <dbl>  <dbl>
 1 2007-01-15 France   0.0580   0.0130 0.0409
 2 2007-01-15 Italie   0.278    0.154  0.229
 3 2007-02-15 France   0.0560   0.0380 0.0440
 4 2007-02-15 Italie   0.284    0.17   0.211
 5 2007-03-15 France   0.0630   0.0350 0.0466
 6 2007-03-15 Italie   0.318    0.192  0.239
 7 2007-04-15 France   0.0690   0.0410 0.0496
 8 2007-04-15 Italie   0.285    0.153  0.225
 9 2007-05-15 France   0.0980   0.0330 0.0464
10 2007-05-15 Italie   0.291    0.175  0.222
# ℹ 412 more rows
…
